{
    "id":[24],
    "added":[24],
    "role":[24],
    "var1":[24],
    "var2":[24],
    "var3":[24],
    "var4":[24],
    "var5":[24],
    "var6":[24],
    "var7":[24],
    "var8":[24]
}
